{
    "randomSeed": 0,
    "kMeansMinDeltaDifference": 1,
    "kMeansClusteringColorSpace": 0,
    "removeFacetsSmallerThanNrOfPoints": 10,
    "removeFacetsFromLargeToSmall": true,
    "maximumNumberOfFacets": 100000,
    "nrOfTimesToHalveBorderSegments": 2,
    "narrowPixelStripCleanupRuns": 3,
    "resizeImageIfTooLarge": true,
    "resizeImageWidth": 1024,
    "resizeImageHeight": 1024,
    "kMeansNrOfClusters": 30,
    "outputProfiles": [
        {
            "name": "szines",
            "svgShowLabels": false,
            "svgFillFacets": true,
            "svgShowBorders": false,
            "svgSizeMultiplier": 3,
            "svgFontColor": "#333",
            "filetype": "png"
        },
        {
            "name": "korvonal",
            "svgShowLabels": true,
            "svgFillFacets": false,
            "svgShowBorders": true,
            "svgSizeMultiplier": 3,
            "svgFontColor": "#333",
            "filetype": "png"
        }
    ]
}